Doing my homework!

---------------------------------------------------------
DAY: 0

Processing task 0... 

ID   DUE ON    REMAINING      FINISHED DAY        OVERDUE   
0    16        2                                             <<       
1    36        2                                            
2    23        5                                            
3    31        11                                           
4    29        3                                            
5    36        7                                            
6    39        4                                            
7    39        17                                           
8    26        1                                            
9    39        8                                            


---------------------------------------------------------
DAY: 1

Processing task 0... 

ID   DUE ON    REMAINING      FINISHED DAY        OVERDUE   
0    16        1                                             <<       
1    36        2                                            
2    23        5                                            
3    31        11                                           
4    29        3                                            
5    36        7                                            
6    39        4                                            
7    39        17                                           
8    26        1                                            
9    39        8                                            


---------------------------------------------------------
DAY: 2

Processing task 0... done!

ID   DUE ON    REMAINING      FINISHED DAY        OVERDUE   
0    16        0              2                             
1    36        2                                            
2    23        5                                             <<       
3    31        11                                           
4    29        3                                            
5    36        7                                            
6    39        4                                            
7    39        17                                           
8    26        1                                            
9    39        8                                            


---------------------------------------------------------
DAY: 3

Processing task 2... 

ID   DUE ON    REMAINING      FINISHED DAY        OVERDUE   
0    16        0              2                             
1    36        2                                            
2    23        4                                             <<       
3    31        11                                           
4    29        3                                            
5    36        7                                            
6    39        4                                            
7    39        17                                           
8    26        1                                            
9    39        8                                            


---------------------------------------------------------
DAY: 4

Processing task 2... 

ID   DUE ON    REMAINING      FINISHED DAY        OVERDUE   
0    16        0              2                             
1    36        2                                            
2    23        3                                             <<       
3    31        11                                           
4    29        3                                            
5    36        7                                            
6    39        4                                            
7    39        17                                           
8    26        1                                            
9    39        8                                            


---------------------------------------------------------
DAY: 5

Processing task 2... 

ID   DUE ON    REMAINING      FINISHED DAY        OVERDUE   
0    16        0              2                             
1    36        2                                            
2    23        2                                             <<       
3    31        11                                           
4    29        3                                            
5    36        7                                            
6    39        4                                            
7    39        17                                           
8    26        1                                            
9    39        8                                            


---------------------------------------------------------
DAY: 6

Processing task 2... 

ID   DUE ON    REMAINING      FINISHED DAY        OVERDUE   
0    16        0              2                             
1    36        2                                            
2    23        1                                             <<       
3    31        11                                           
4    29        3                                            
5    36        7                                            
6    39        4                                            
7    39        17                                           
8    26        1                                            
9    39        8                                            


---------------------------------------------------------
DAY: 7

Processing task 2... done!

ID   DUE ON    REMAINING      FINISHED DAY        OVERDUE   
0    16        0              2                             
1    36        2                                            
2    23        0              7                             
3    31        11                                           
4    29        3                                            
5    36        7                                            
6    39        4                                            
7    39        17                                           
8    26        1                                             <<       
9    39        8                                            


---------------------------------------------------------
DAY: 8

Processing task 8... done!

ID   DUE ON    REMAINING      FINISHED DAY        OVERDUE   
0    16        0              2                             
1    36        2                                            
2    23        0              7                             
3    31        11                                           
4    29        3                                             <<       
5    36        7                                            
6    39        4                                            
7    39        17                                           
8    26        0              8                             
9    39        8                                            


---------------------------------------------------------
DAY: 9

Processing task 4... 

ID   DUE ON    REMAINING      FINISHED DAY        OVERDUE   
0    16        0              2                             
1    36        2                                            
2    23        0              7                             
3    31        11                                           
4    29        2                                             <<       
5    36        7                                            
6    39        4                                            
7    39        17                                           
8    26        0              8                             
9    39        8                                            


---------------------------------------------------------
DAY: 10

Processing task 4... 

ID   DUE ON    REMAINING      FINISHED DAY        OVERDUE   
0    16        0              2                             
1    36        2                                            
2    23        0              7                             
3    31        11                                           
4    29        1                                             <<       
5    36        7                                            
6    39        4                                            
7    39        17                                           
8    26        0              8                             
9    39        8                                            


---------------------------------------------------------
DAY: 11

Processing task 4... done!

ID   DUE ON    REMAINING      FINISHED DAY        OVERDUE   
0    16        0              2                             
1    36        2                                            
2    23        0              7                             
3    31        11                                            <<       
4    29        0              11                            
5    36        7                                            
6    39        4                                            
7    39        17                                           
8    26        0              8                             
9    39        8                                            


---------------------------------------------------------
DAY: 12

Processing task 3... 

ID   DUE ON    REMAINING      FINISHED DAY        OVERDUE   
0    16        0              2                             
1    36        2                                            
2    23        0              7                             
3    31        10                                            <<       
4    29        0              11                            
5    36        7                                            
6    39        4                                            
7    39        17                                           
8    26        0              8                             
9    39        8                                            


---------------------------------------------------------
DAY: 13

Processing task 3... 

ID   DUE ON    REMAINING      FINISHED DAY        OVERDUE   
0    16        0              2                             
1    36        2                                            
2    23        0              7                             
3    31        9                                             <<       
4    29        0              11                            
5    36        7                                            
6    39        4                                            
7    39        17                                           
8    26        0              8                             
9    39        8                                            


---------------------------------------------------------
DAY: 14

Processing task 3... 

ID   DUE ON    REMAINING      FINISHED DAY        OVERDUE   
0    16        0              2                             
1    36        2                                            
2    23        0              7                             
3    31        8                                             <<       
4    29        0              11                            
5    36        7                                            
6    39        4                                            
7    39        17                                           
8    26        0              8                             
9    39        8                                            


---------------------------------------------------------
DAY: 15

Processing task 3... 

ID   DUE ON    REMAINING      FINISHED DAY        OVERDUE   
0    16        0              2                             
1    36        2                                            
2    23        0              7                             
3    31        7                                             <<       
4    29        0              11                            
5    36        7                                            
6    39        4                                            
7    39        17                                           
8    26        0              8                             
9    39        8                                            


---------------------------------------------------------
DAY: 16

Processing task 3... 

ID   DUE ON    REMAINING      FINISHED DAY        OVERDUE   
0    16        0              2                             
1    36        2                                            
2    23        0              7                             
3    31        6                                             <<       
4    29        0              11                            
5    36        7                                            
6    39        4                                            
7    39        17                                           
8    26        0              8                             
9    39        8                                            


---------------------------------------------------------
DAY: 17

Processing task 3... 

ID   DUE ON    REMAINING      FINISHED DAY        OVERDUE   
0    16        0              2                             
1    36        2                                            
2    23        0              7                             
3    31        5                                             <<       
4    29        0              11                            
5    36        7                                            
6    39        4                                            
7    39        17                                           
8    26        0              8                             
9    39        8                                            


---------------------------------------------------------
DAY: 18

Processing task 3... 

ID   DUE ON    REMAINING      FINISHED DAY        OVERDUE   
0    16        0              2                             
1    36        2                                            
2    23        0              7                             
3    31        4                                             <<       
4    29        0              11                            
5    36        7                                            
6    39        4                                            
7    39        17                                           
8    26        0              8                             
9    39        8                                            


---------------------------------------------------------
DAY: 19

Processing task 3... 

ID   DUE ON    REMAINING      FINISHED DAY        OVERDUE   
0    16        0              2                             
1    36        2                                            
2    23        0              7                             
3    31        3                                             <<       
4    29        0              11                            
5    36        7                                            
6    39        4                                            
7    39        17                                           
8    26        0              8                             
9    39        8                                            


---------------------------------------------------------
DAY: 20

Processing task 3... 

ID   DUE ON    REMAINING      FINISHED DAY        OVERDUE   
0    16        0              2                             
1    36        2                                            
2    23        0              7                             
3    31        2                                             <<       
4    29        0              11                            
5    36        7                                            
6    39        4                                            
7    39        17                                           
8    26        0              8                             
9    39        8                                            


---------------------------------------------------------
DAY: 21

Processing task 3... 

ID   DUE ON    REMAINING      FINISHED DAY        OVERDUE   
0    16        0              2                             
1    36        2                                            
2    23        0              7                             
3    31        1                                             <<       
4    29        0              11                            
5    36        7                                            
6    39        4                                            
7    39        17                                           
8    26        0              8                             
9    39        8                                            


---------------------------------------------------------
DAY: 22

Processing task 3... done!

ID   DUE ON    REMAINING      FINISHED DAY        OVERDUE   
0    16        0              2                             
1    36        2                                             <<       
2    23        0              7                             
3    31        0              22                            
4    29        0              11                            
5    36        7                                            
6    39        4                                            
7    39        17                                           
8    26        0              8                             
9    39        8                                            


---------------------------------------------------------
DAY: 23

Processing task 1... 

ID   DUE ON    REMAINING      FINISHED DAY        OVERDUE   
0    16        0              2                             
1    36        1                                             <<       
2    23        0              7                             
3    31        0              22                            
4    29        0              11                            
5    36        7                                            
6    39        4                                            
7    39        17                                           
8    26        0              8                             
9    39        8                                            


---------------------------------------------------------
DAY: 24

Processing task 1... done!

ID   DUE ON    REMAINING      FINISHED DAY        OVERDUE   
0    16        0              2                             
1    36        0              24                            
2    23        0              7                             
3    31        0              22                            
4    29        0              11                            
5    36        7                                             <<       
6    39        4                                            
7    39        17                                           
8    26        0              8                             
9    39        8                                            


---------------------------------------------------------
DAY: 25

Processing task 5... 

ID   DUE ON    REMAINING      FINISHED DAY        OVERDUE   
0    16        0              2                             
1    36        0              24                            
2    23        0              7                             
3    31        0              22                            
4    29        0              11                            
5    36        6                                             <<       
6    39        4                                            
7    39        17                                           
8    26        0              8                             
9    39        8                                            


---------------------------------------------------------
DAY: 26

Processing task 5... 

ID   DUE ON    REMAINING      FINISHED DAY        OVERDUE   
0    16        0              2                             
1    36        0              24                            
2    23        0              7                             
3    31        0              22                            
4    29        0              11                            
5    36        5                                             <<       
6    39        4                                            
7    39        17                                           
8    26        0              8                             
9    39        8                                            


---------------------------------------------------------
DAY: 27

Processing task 5... 

ID   DUE ON    REMAINING      FINISHED DAY        OVERDUE   
0    16        0              2                             
1    36        0              24                            
2    23        0              7                             
3    31        0              22                            
4    29        0              11                            
5    36        4                                             <<       
6    39        4                                            
7    39        17                                           
8    26        0              8                             
9    39        8                                            


---------------------------------------------------------
DAY: 28

Processing task 5... 

ID   DUE ON    REMAINING      FINISHED DAY        OVERDUE   
0    16        0              2                             
1    36        0              24                            
2    23        0              7                             
3    31        0              22                            
4    29        0              11                            
5    36        3                                             <<       
6    39        4                                            
7    39        17                                           
8    26        0              8                             
9    39        8                                            


---------------------------------------------------------
DAY: 29

Processing task 5... 

ID   DUE ON    REMAINING      FINISHED DAY        OVERDUE   
0    16        0              2                             
1    36        0              24                            
2    23        0              7                             
3    31        0              22                            
4    29        0              11                            
5    36        2                                             <<       
6    39        4                                            
7    39        17                                           
8    26        0              8                             
9    39        8                                            


---------------------------------------------------------
DAY: 30

Processing task 5... 

ID   DUE ON    REMAINING      FINISHED DAY        OVERDUE   
0    16        0              2                             
1    36        0              24                            
2    23        0              7                             
3    31        0              22                            
4    29        0              11                            
5    36        1                                             <<       
6    39        4                                            
7    39        17                                           
8    26        0              8                             
9    39        8                                            


---------------------------------------------------------
DAY: 31

Processing task 5... done!

ID   DUE ON    REMAINING      FINISHED DAY        OVERDUE   
0    16        0              2                             
1    36        0              24                            
2    23        0              7                             
3    31        0              22                            
4    29        0              11                            
5    36        0              31                            
6    39        4                                             <<       
7    39        17                                           
8    26        0              8                             
9    39        8                                            


---------------------------------------------------------
DAY: 32

Processing task 6... 

ID   DUE ON    REMAINING      FINISHED DAY        OVERDUE   
0    16        0              2                             
1    36        0              24                            
2    23        0              7                             
3    31        0              22                            
4    29        0              11                            
5    36        0              31                            
6    39        3                                             <<       
7    39        17                                           
8    26        0              8                             
9    39        8                                            


---------------------------------------------------------
DAY: 33

Processing task 6... 

ID   DUE ON    REMAINING      FINISHED DAY        OVERDUE   
0    16        0              2                             
1    36        0              24                            
2    23        0              7                             
3    31        0              22                            
4    29        0              11                            
5    36        0              31                            
6    39        2                                             <<       
7    39        17                                           
8    26        0              8                             
9    39        8                                            


---------------------------------------------------------
DAY: 34

Processing task 6... 

ID   DUE ON    REMAINING      FINISHED DAY        OVERDUE   
0    16        0              2                             
1    36        0              24                            
2    23        0              7                             
3    31        0              22                            
4    29        0              11                            
5    36        0              31                            
6    39        1                                             <<       
7    39        17                                           
8    26        0              8                             
9    39        8                                            


---------------------------------------------------------
DAY: 35

Processing task 6... done!

ID   DUE ON    REMAINING      FINISHED DAY        OVERDUE   
0    16        0              2                             
1    36        0              24                            
2    23        0              7                             
3    31        0              22                            
4    29        0              11                            
5    36        0              31                            
6    39        0              35                            
7    39        17                                            <<       
8    26        0              8                             
9    39        8                                            


---------------------------------------------------------
DAY: 36

Processing task 7... 

ID   DUE ON    REMAINING      FINISHED DAY        OVERDUE   
0    16        0              2                             
1    36        0              24                            
2    23        0              7                             
3    31        0              22                            
4    29        0              11                            
5    36        0              31                            
6    39        0              35                            
7    39        16                                            <<       
8    26        0              8                             
9    39        8                                            


---------------------------------------------------------
DAY: 37

Processing task 7... 

ID   DUE ON    REMAINING      FINISHED DAY        OVERDUE   
0    16        0              2                             
1    36        0              24                            
2    23        0              7                             
3    31        0              22                            
4    29        0              11                            
5    36        0              31                            
6    39        0              35                            
7    39        15                                            <<       
8    26        0              8                             
9    39        8                                            


---------------------------------------------------------
DAY: 38

Processing task 7... 

ID   DUE ON    REMAINING      FINISHED DAY        OVERDUE   
0    16        0              2                             
1    36        0              24                            
2    23        0              7                             
3    31        0              22                            
4    29        0              11                            
5    36        0              31                            
6    39        0              35                            
7    39        14                                            <<       
8    26        0              8                             
9    39        8                                            


---------------------------------------------------------
DAY: 39

Processing task 7... 

ID   DUE ON    REMAINING      FINISHED DAY        OVERDUE   
0    16        0              2                             
1    36        0              24                            
2    23        0              7                             
3    31        0              22                            
4    29        0              11                            
5    36        0              31                            
6    39        0              35                            
7    39        13                                            <<       
8    26        0              8                             
9    39        8                                            


---------------------------------------------------------
DAY: 40

Processing task 7... 

ID   DUE ON    REMAINING      FINISHED DAY        OVERDUE   
0    16        0              2                             
1    36        0              24                            
2    23        0              7                             
3    31        0              22                            
4    29        0              11                            
5    36        0              31                            
6    39        0              35                            
7    39        12                                 overdue    <<       
8    26        0              8                             
9    39        8                                  overdue   


---------------------------------------------------------
DAY: 41

Processing task 7... 

ID   DUE ON    REMAINING      FINISHED DAY        OVERDUE   
0    16        0              2                             
1    36        0              24                            
2    23        0              7                             
3    31        0              22                            
4    29        0              11                            
5    36        0              31                            
6    39        0              35                            
7    39        11                                 overdue    <<       
8    26        0              8                             
9    39        8                                  overdue   


---------------------------------------------------------
DAY: 42

Processing task 7... 

ID   DUE ON    REMAINING      FINISHED DAY        OVERDUE   
0    16        0              2                             
1    36        0              24                            
2    23        0              7                             
3    31        0              22                            
4    29        0              11                            
5    36        0              31                            
6    39        0              35                            
7    39        10                                 overdue    <<       
8    26        0              8                             
9    39        8                                  overdue   


---------------------------------------------------------
DAY: 43

Processing task 7... 

ID   DUE ON    REMAINING      FINISHED DAY        OVERDUE   
0    16        0              2                             
1    36        0              24                            
2    23        0              7                             
3    31        0              22                            
4    29        0              11                            
5    36        0              31                            
6    39        0              35                            
7    39        9                                  overdue    <<       
8    26        0              8                             
9    39        8                                  overdue   


---------------------------------------------------------
DAY: 44

Processing task 7... 

ID   DUE ON    REMAINING      FINISHED DAY        OVERDUE   
0    16        0              2                             
1    36        0              24                            
2    23        0              7                             
3    31        0              22                            
4    29        0              11                            
5    36        0              31                            
6    39        0              35                            
7    39        8                                  overdue    <<       
8    26        0              8                             
9    39        8                                  overdue   


---------------------------------------------------------
DAY: 45

Processing task 7... 

ID   DUE ON    REMAINING      FINISHED DAY        OVERDUE   
0    16        0              2                             
1    36        0              24                            
2    23        0              7                             
3    31        0              22                            
4    29        0              11                            
5    36        0              31                            
6    39        0              35                            
7    39        7                                  overdue    <<       
8    26        0              8                             
9    39        8                                  overdue   


---------------------------------------------------------
DAY: 46

Processing task 7... 

ID   DUE ON    REMAINING      FINISHED DAY        OVERDUE   
0    16        0              2                             
1    36        0              24                            
2    23        0              7                             
3    31        0              22                            
4    29        0              11                            
5    36        0              31                            
6    39        0              35                            
7    39        6                                  overdue    <<       
8    26        0              8                             
9    39        8                                  overdue   


---------------------------------------------------------
DAY: 47

Processing task 7... 

ID   DUE ON    REMAINING      FINISHED DAY        OVERDUE   
0    16        0              2                             
1    36        0              24                            
2    23        0              7                             
3    31        0              22                            
4    29        0              11                            
5    36        0              31                            
6    39        0              35                            
7    39        5                                  overdue    <<       
8    26        0              8                             
9    39        8                                  overdue   


---------------------------------------------------------
DAY: 48

Processing task 7... 

ID   DUE ON    REMAINING      FINISHED DAY        OVERDUE   
0    16        0              2                             
1    36        0              24                            
2    23        0              7                             
3    31        0              22                            
4    29        0              11                            
5    36        0              31                            
6    39        0              35                            
7    39        4                                  overdue    <<       
8    26        0              8                             
9    39        8                                  overdue   


---------------------------------------------------------
DAY: 49

Processing task 7... 

ID   DUE ON    REMAINING      FINISHED DAY        OVERDUE   
0    16        0              2                             
1    36        0              24                            
2    23        0              7                             
3    31        0              22                            
4    29        0              11                            
5    36        0              31                            
6    39        0              35                            
7    39        3                                  overdue    <<       
8    26        0              8                             
9    39        8                                  overdue   


---------------------------------------------------------
DAY: 50

Processing task 7... 

ID   DUE ON    REMAINING      FINISHED DAY        OVERDUE   
0    16        0              2                             
1    36        0              24                            
2    23        0              7                             
3    31        0              22                            
4    29        0              11                            
5    36        0              31                            
6    39        0              35                            
7    39        2                                  overdue    <<       
8    26        0              8                             
9    39        8                                  overdue   


---------------------------------------------------------
DAY: 51

Processing task 7... 

ID   DUE ON    REMAINING      FINISHED DAY        OVERDUE   
0    16        0              2                             
1    36        0              24                            
2    23        0              7                             
3    31        0              22                            
4    29        0              11                            
5    36        0              31                            
6    39        0              35                            
7    39        1                                  overdue    <<       
8    26        0              8                             
9    39        8                                  overdue   


---------------------------------------------------------
DAY: 52

Processing task 7... done!

ID   DUE ON    REMAINING      FINISHED DAY        OVERDUE   
0    16        0              2                             
1    36        0              24                            
2    23        0              7                             
3    31        0              22                            
4    29        0              11                            
5    36        0              31                            
6    39        0              35                            
7    39        0              52                  overdue   
8    26        0              8                             
9    39        8                                  overdue    <<       


---------------------------------------------------------
DAY: 53

Processing task 9... 

ID   DUE ON    REMAINING      FINISHED DAY        OVERDUE   
0    16        0              2                             
1    36        0              24                            
2    23        0              7                             
3    31        0              22                            
4    29        0              11                            
5    36        0              31                            
6    39        0              35                            
7    39        0              52                  overdue   
8    26        0              8                             
9    39        7                                  overdue    <<       


---------------------------------------------------------
DAY: 54

Processing task 9... 

ID   DUE ON    REMAINING      FINISHED DAY        OVERDUE   
0    16        0              2                             
1    36        0              24                            
2    23        0              7                             
3    31        0              22                            
4    29        0              11                            
5    36        0              31                            
6    39        0              35                            
7    39        0              52                  overdue   
8    26        0              8                             
9    39        6                                  overdue    <<       


---------------------------------------------------------
DAY: 55

Processing task 9... 

ID   DUE ON    REMAINING      FINISHED DAY        OVERDUE   
0    16        0              2                             
1    36        0              24                            
2    23        0              7                             
3    31        0              22                            
4    29        0              11                            
5    36        0              31                            
6    39        0              35                            
7    39        0              52                  overdue   
8    26        0              8                             
9    39        5                                  overdue    <<       


---------------------------------------------------------
DAY: 56

Processing task 9... 

ID   DUE ON    REMAINING      FINISHED DAY        OVERDUE   
0    16        0              2                             
1    36        0              24                            
2    23        0              7                             
3    31        0              22                            
4    29        0              11                            
5    36        0              31                            
6    39        0              35                            
7    39        0              52                  overdue   
8    26        0              8                             
9    39        4                                  overdue    <<       


---------------------------------------------------------
DAY: 57

Processing task 9... 

ID   DUE ON    REMAINING      FINISHED DAY        OVERDUE   
0    16        0              2                             
1    36        0              24                            
2    23        0              7                             
3    31        0              22                            
4    29        0              11                            
5    36        0              31                            
6    39        0              35                            
7    39        0              52                  overdue   
8    26        0              8                             
9    39        3                                  overdue    <<       


---------------------------------------------------------
DAY: 58

Processing task 9... 

ID   DUE ON    REMAINING      FINISHED DAY        OVERDUE   
0    16        0              2                             
1    36        0              24                            
2    23        0              7                             
3    31        0              22                            
4    29        0              11                            
5    36        0              31                            
6    39        0              35                            
7    39        0              52                  overdue   
8    26        0              8                             
9    39        2                                  overdue    <<       


---------------------------------------------------------
DAY: 59

Processing task 9... 

ID   DUE ON    REMAINING      FINISHED DAY        OVERDUE   
0    16        0              2                             
1    36        0              24                            
2    23        0              7                             
3    31        0              22                            
4    29        0              11                            
5    36        0              31                            
6    39        0              35                            
7    39        0              52                  overdue   
8    26        0              8                             
9    39        1                                  overdue    <<       


---------------------------------------------------------
DAY: 60

Processing task 9... done!

ID   DUE ON    REMAINING      FINISHED DAY        OVERDUE   
0    16        0              2                             
1    36        0              24                            
2    23        0              7                             
3    31        0              22                            
4    29        0              11                            
5    36        0              31                            
6    39        0              35                            
7    39        0              52                  overdue   
8    26        0              8                             
9    39        0              60                  overdue    <<       

